{
  "SHADER": {
    "VERTEX": "src/shader.vert",
    "FRAGMENT": "src/shader.frag"
  },
  "BOOT": "for(w=c.width=__WIDTH__,a=c.getContext('2d'),a.drawImage(this,p=0,0),e='',d=a.getImageData(0,0,w,__HEIGHT__).data;t=d[p+=4];)e+=String.fromCharCode(t);document.write(e)"

}